{
  "success": true,
  "retCode": "1000",
  "message": "操作成功",
  "startRowNum": 0,
  "page": {
    "count": 29,
    "endRowNum": 19,
    "isFirstPage": true,
    "isLastPage": false,
    "orderBy": "create_date desc",
    "pageCount": 2,
    "pageNo": 1,
    "pageSize": 20,
    "rows": [
      {
        "id": "1232",
        "code": "123",
        "codeNum": "123",
        "nameSub": "中间罐区",
        "otherName": "虚拟罐区",
        "workshop": "溶出车间",
        "idFasult": "true",
        "order": "1",
        "explain": "qweqw",
        "operation": ""
      },
      {
        "id": "1231",
        "code": "123",
        "codeNum": "123",
        "nameSub": "中间罐区",
        "otherName": "虚拟罐区",
        "workshop": "溶出车间",
        "idFasult": "true",
        "order": "1",
        "explain": "qweqw",
        "operation": ""
      },
      {
        "id": "120",
        "code": "123",
        "codeNum": "123",
        "nameSub": "中间罐区",
        "otherName": "虚拟罐区",
        "workshop": "溶出车间",
        "idFasult": "true",
        "order": "1",
        "explain": "qweqw",
        "operation": ""
      },
      {
        "id": "129",
        "code": "123",
        "codeNum": "123",
        "nameSub": "中间罐区",
        "otherName": "虚拟罐区",
        "workshop": "溶出车间",
        "idFasult": "true",
        "order": "1",
        "explain": "qweqw",
        "operation": ""
      },
      {
        "id": "128",
        "code": "123",
        "codeNum": "123",
        "nameSub": "中间罐区",
        "otherName": "虚拟罐区",
        "workshop": "溶出车间",
        "idFasult": "true",
        "order": "1",
        "explain": "qweqw",
        "operation": ""
      },
      {
        "id": "127",
        "code": "123",
        "codeNum": "123",
        "nameSub": "中间罐区",
        "otherName": "虚拟罐区",
        "workshop": "溶出车间",
        "idFasult": "true",
        "order": "1",
        "explain": "qweqw",
        "operation": ""
      },
      {
        "id": "126",
        "code": "123",
        "codeNum": "123",
        "nameSub": "中间罐区",
        "otherName": "虚拟罐区",
        "workshop": "溶出车间",
        "idFasult": "true",
        "order": "1",
        "explain": "qweqw",
        "operation": ""
      },
      {
        "id": "125",
        "code": "123",
        "codeNum": "123",
        "nameSub": "中间罐区",
        "otherName": "虚拟罐区",
        "workshop": "溶出车间",
        "idFasult": "true",
        "order": "1",
        "explain": "qweqw",
        "operation": ""
      },
      {
        "id": "124",
        "code": "123",
        "codeNum": "123",
        "nameSub": "中间罐区",
        "otherName": "虚拟罐区",
        "workshop": "溶出车间",
        "idFasult": "true",
        "order": "1",
        "explain": "qweqw",
        "operation": ""
      },
      {
        "id": "123",
        "code": "123",
        "codeNum": "123",
        "nameSub": "中间罐区",
        "otherName": "虚拟罐区",
        "workshop": "溶出车间",
        "idFasult": "true",
        "order": "1",
        "explain": "qweqw",
        "operation": ""
      },
      {
        "id": "122",
        "code": "123",
        "codeNum": "123",
        "nameSub": "中间罐区",
        "otherName": "虚拟罐区",
        "workshop": "溶出车间",
        "idFasult": "true",
        "order": "1",
        "explain": "qweqw",
        "operation": ""
      },
      {
        "id": "121",
        "code": "123",
        "codeNum": "123",
        "nameSub": "中间罐区",
        "otherName": "虚拟罐区",
        "workshop": "溶出车间",
        "idFasult": "true",
        "order": "1",
        "explain": "qweqw",
        "operation": ""
      }
    ]
  },
  "rows": [
    {
      "id": "1232",
      "code": "123",
      "codeNum": "123",
      "nameSub": "中间罐区",
      "name": "虚拟罐区1",
      "workshop": "溶出车间",
      "idFasult": "true",
      "order": "1",
      "explain": "qweqw",
      "operation": ""
    },
    {
      "id": "1231",
      "code": "123",
      "codeNum": "123",
      "nameSub": "中间罐区",
      "name": "虚拟罐区2",
      "workshop": "溶出车间",
      "idFasult": "true",
      "order": "0",
      "explain": "qweqw",
      "operation": ""
    },
    {
      "id": "120",
      "code": "123",
      "codeNum": "123",
      "nameSub": "中间罐区",
      "name": "虚拟罐区3",
      "workshop": "溶出车间",
      "idFasult": "true",
      "order": "1",
      "explain": "qweqw",
      "operation": ""
    }
  ]
}
